{
    "name": "midgard4",
    "title": "Midgard 4th Edition",
    "description": "",
    "author": "Mark McCall",
    "version": "0.0.1",
    "minimumCoreVersion": "0.7.9",
    "compatibleCoreVersion": "0.7.9",
    "esmodules": [
        "midgard4.js"
    ],
    "styles": [
        "midgard4.css"
    ],
    "packs": [],
    "languages": [{
        "lang": "de",
        "name": "Deutsch",
        "path": "lang/de.json"
    }],
    "gridDistance": 1,
    "gridUnits": "m",
    "primaryTokenAttribute": "hp",
    "secondaryTokenAttribute": "ap",
    "initiative": "@reaction"
}